%TF.GenerationSoftware,Novarm,DipTrace,3.0.0.1*%
%TF.CreationDate,2016-06-08T18:26:58+00:00*%
%FSLAX26Y26*%
%MOIN*%
%TF.FileFunction,Copper,L1,Top*%
%TF.Part,Single*%
%TA.AperFunction,Conductor*%
%ADD14C,0.03937*%
%ADD15C,0.023622*%
%ADD16C,0.007874*%
%ADD17C,0.015748*%
%ADD18C,0.07874*%
%ADD21R,0.035433X0.027559*%
%ADD23R,0.124016X0.062992*%
%ADD24R,0.07874X0.11811*%
%ADD25R,0.07874X0.049213*%
%ADD26R,0.11811X0.07874*%
%ADD27R,0.049213X0.07874*%
%ADD28R,0.059843X0.047244*%
%TA.AperFunction,ComponentPad*%
%ADD29R,0.059055X0.059055*%
%ADD30C,0.059055*%
%ADD31C,0.1*%
%ADD32R,0.066929X0.066929*%
%ADD33C,0.066929*%
%ADD34R,0.090551X0.090551*%
%ADD35C,0.090551*%
%ADD36R,0.027559X0.035433*%
%ADD37R,0.03937X0.043307*%
%TA.AperFunction,ComponentPad*%
%ADD38C,0.12*%
%ADD39C,0.12*%
%ADD40R,0.125984X0.070866*%
%TA.AperFunction,ComponentPad*%
%ADD41R,0.07874X0.07874*%
%ADD42C,0.07874*%
%ADD44R,0.025591X0.041339*%
%ADD46R,0.041339X0.025591*%
%ADD49O,0.021654X0.007874*%
%ADD50O,0.007874X0.021654*%
%ADD51R,0.110236X0.110236*%
%TA.AperFunction,ViaPad*%
%ADD111C,0.023622*%
G75*
G01*
%LPD*%
X1331201Y816535D2*
D14*
Y718701D1*
X1281201Y668701D1*
X1156201D1*
X1331201Y816535D2*
X1587106D1*
Y499606D1*
D15*
X1581201Y493701D1*
X1831201Y893701D2*
Y806201D1*
Y643701D1*
X1981201Y493701D1*
X1831201Y893701D2*
X1664272D1*
X1587106Y816535D1*
X1281201Y1318504D2*
X1331398D1*
X1356201Y1293701D1*
X1256201Y1694882D2*
Y1791777D1*
Y1868701D1*
Y2043701D1*
X831201Y2743701D2*
D14*
X706201D1*
X506201Y2543701D1*
Y2193701D1*
X569480Y2130421D1*
X731201Y1968701D1*
Y1792520D1*
Y1500787D1*
X738287Y1493701D1*
X831201Y1792520D2*
D15*
X731201D1*
X606201Y2217520D2*
Y2167142D1*
X569480Y2130421D1*
X506201Y1768701D2*
X631201D1*
X655020Y1792520D1*
X731201D1*
X1156201Y668701D2*
D14*
X881201D1*
X731201Y818701D1*
Y1486614D1*
X738287Y1493701D1*
X2293701Y1906201D2*
D15*
Y1990846D1*
X2313878Y2011024D1*
X1646752Y1772638D2*
D16*
Y1738228D1*
X1607343Y1698819D1*
X1552244Y1625000D2*
Y1540635D1*
Y1513563D1*
X1532382Y1493701D1*
X1646752Y1772638D2*
Y1815650D1*
X1630020Y1832382D1*
Y1868701D1*
X1607343Y1698819D2*
X1575846Y1730315D1*
X1607343Y1698819D2*
D3*
X1646752Y1738228D2*
D3*
X1638839Y1730315D2*
X1607343Y1698819D1*
X1575846Y1667323D1*
X1607343Y1698819D2*
X1638839Y1667323D1*
X1281201Y1318504D2*
D15*
Y1381201D1*
X1256201Y1181201D2*
Y891535D1*
X1331201Y816535D1*
X2293701Y1906201D2*
Y1868701D1*
X2318701Y1843701D1*
Y1668701D1*
Y1018701D1*
X2106201Y806201D1*
X1831201D1*
X1931201Y1493701D2*
Y1593701D1*
Y1631201D1*
X1968701Y1668701D1*
X2318701D1*
X1630020Y1868701D2*
X1256201D1*
X831201Y1792520D2*
X892520Y1791777D1*
X831201Y1843701D2*
D16*
Y1942520D1*
X1583760Y1625000D2*
Y1578642D1*
X1618701Y1543701D1*
X1156201Y1568701D2*
Y1681201D1*
X993701Y1843701D1*
X831201D1*
X606201Y2268701D2*
Y2342520D1*
X605020Y2343701D1*
X1568012Y1625000D2*
Y1569390D1*
X1593701Y1543701D1*
Y1506201D1*
X1193701Y1568701D2*
Y1868701D1*
X656201Y2268701D2*
X606201D1*
X1599508Y1625000D2*
Y1600394D1*
X1618701Y1581201D1*
X1731201Y1843701D2*
X1906201Y2018701D1*
X1981201D2*
X2031004D1*
X2031201Y2018898D1*
X1681201Y1706693D2*
X1781693D1*
X1893701Y1818701D1*
X1943701Y1868701D1*
Y2056201D1*
X1981201Y2093701D1*
X2031201D1*
X1982382Y1593701D2*
X2118701D1*
X2193701D1*
X2231201Y1556201D1*
Y1493701D1*
X1681201Y1675197D2*
X1825197D1*
X1831201Y1681201D1*
X1618701Y1993701D2*
X1556201D1*
X1681201Y1690945D2*
X1803445D1*
X1843701Y1731201D1*
X1618701Y2093701D2*
X1556201D1*
X1533563Y1643701D2*
Y1594882D1*
X1481201Y1542520D1*
Y1493701D2*
Y1542520D1*
X2131201Y1793690D2*
D15*
X2231190D1*
X2231201Y1793701D1*
X1731201Y1043701D2*
Y1081201D1*
X1768701Y1118701D1*
X2068701D1*
X2131201Y1056201D1*
Y918701D1*
X2106201Y893701D1*
X2031201D1*
X1662500Y1772638D2*
D16*
Y1812500D1*
X1681201Y1831201D1*
D17*
Y1868701D1*
X1481201Y1593701D2*
Y1631201D1*
X1493701Y1643701D1*
X1681201Y1868701D2*
D15*
X1806201Y1993701D1*
X2181201Y1056201D2*
X2131201D1*
X1505020Y2093701D2*
D16*
X1397726D1*
X1382175Y2078150D1*
X1505020Y1993701D2*
X1397726D1*
X1382175Y2009252D1*
X1106201Y918701D2*
Y810226D1*
X1121752Y794675D1*
X1206201Y917520D2*
Y810226D1*
X1190650Y794675D1*
X871201Y843701D2*
D15*
Y933701D1*
X1031201Y1093701D1*
X1078839D1*
X1080020Y1094882D1*
X1190650Y1281102D2*
Y1205512D1*
X1080020Y1094882D1*
X1381201Y493701D2*
D18*
X656201D1*
X531201Y618701D1*
Y843701D1*
X931201Y1493701D2*
D15*
X1078839D1*
X1080020Y1492520D1*
X1081201Y1593701D2*
Y1493701D1*
X1256201Y1501772D2*
X1089272D1*
X1080020Y1492520D1*
X1281201Y1243701D2*
D16*
X1355020D1*
X1356201Y1242520D1*
X1458169D1*
X1468799Y1253150D1*
X831201Y1993701D2*
D15*
Y2123228D1*
X1081201Y1887008D2*
D14*
Y2043701D1*
X1006201Y2118701D1*
X835728D1*
X831201Y2123228D1*
X1006201Y2118701D2*
X1081201Y2193701D1*
Y2343701D1*
Y2693701D1*
X2281201D2*
D15*
Y2343701D1*
X2276476Y2101575D2*
Y2338976D1*
X2281201Y2343701D1*
X2239075Y2011024D2*
D16*
Y2023327D1*
X2206201Y2056201D1*
X2121850D1*
X2121752Y2056299D1*
X2239075Y2011024D2*
Y1909646D1*
X2242520Y1906201D1*
X831201Y2543701D2*
D14*
Y2343701D1*
X656201D2*
D15*
X831201D1*
X1646752Y1625000D2*
D16*
Y1409252D1*
X1631201Y1393701D1*
X1552264Y1772638D2*
X1447638D1*
X1431201Y1756201D1*
Y1343898D1*
X1431398Y1343701D1*
X2131201Y1493701D2*
X1982382D1*
X1681201Y1722441D2*
X1759941D1*
X1843701Y1806201D1*
X1506201Y1343701D2*
X1631201D1*
X1693701Y1281201D2*
X1918701D1*
X2131201Y1493701D1*
X1681201Y1643701D2*
Y1518701D1*
X1693701Y1506201D1*
X1206201Y1018701D2*
Y968701D1*
X1681201Y1659449D2*
X1702953D1*
X1718701Y1643701D1*
Y1568701D1*
X1106201Y1018701D2*
Y969882D1*
X1256201Y1568701D2*
Y1643701D1*
X1568012Y1772638D2*
Y1794390D1*
X1556201Y1806201D1*
X1456201D1*
X1293701Y1643701D1*
X1256201D1*
X1331201Y993701D2*
X1587106D1*
X1730020D1*
X1731201Y992520D1*
X1830020D1*
X1831201Y993701D1*
X1662500Y1625000D2*
Y1069094D1*
X1587106Y993701D1*
X1533563Y1738189D2*
X1488189D1*
X1456201Y1706201D1*
X1681201Y1738189D2*
X1725689D1*
X1743701Y1756201D1*
X1681201Y1753937D2*
X1691437D1*
X1731201Y1793701D1*
X1533563Y1753937D2*
X1466437D1*
X1456201Y1743701D1*
X1533563Y1722441D2*
X1509941D1*
X1456201Y1668701D1*
D111*
X1575846Y1730315D3*
X1638839D3*
X1575846D3*
Y1667323D3*
X1638839D3*
X1607343Y1698819D3*
X1552244Y1540635D3*
X1281201Y1381201D3*
X1256201Y1181201D3*
X892520Y1791777D3*
X1256201D3*
X1618701Y1543701D3*
X1156201Y1568701D3*
X1593701Y1506201D3*
X1193701Y1568701D3*
Y1868701D3*
X656201Y2268701D3*
X1618701Y1581201D3*
X1731201Y1843701D3*
X1906201Y2018701D3*
X1981201D3*
X2118701Y1593701D3*
X1893701Y1818701D3*
X1831201Y1681201D3*
X1618701Y1993701D3*
X1843701Y1731201D3*
X1618701Y2093701D3*
X1493701Y1643701D3*
X1681201Y1831201D3*
X1806201Y1993701D3*
X2181201Y1056201D3*
X1631201Y1393701D3*
X1843701Y1806201D3*
X1631201Y1343701D3*
X1693701Y1281201D3*
Y1506201D3*
X1206201Y1018701D3*
X1718701Y1568701D3*
X1106201Y1018701D3*
X1456201Y1706201D3*
X1743701Y1756201D3*
X1731201Y1793701D3*
X1456201Y1743701D3*
Y1668701D3*
D21*
X1481201Y1493701D3*
X1532382D3*
X1681201Y1868701D3*
X1630020D3*
D23*
X931201Y1493701D3*
X738287D3*
D24*
X1256201Y2043701D3*
D25*
X1382175Y2078150D3*
Y2009252D3*
D26*
X1156201Y668701D3*
D27*
X1121752Y794675D3*
X1190650D3*
D28*
X1081201Y1593701D3*
Y1887008D3*
D29*
X1080020Y1492520D3*
D30*
Y1094882D3*
D31*
X531201Y843701D3*
X871201D3*
D32*
X506201Y1968701D3*
D33*
Y1868701D3*
Y1768701D3*
Y1668701D3*
D32*
X2031201Y993701D3*
D33*
Y893701D3*
X1931201Y993701D3*
Y893701D3*
X1831201Y993701D3*
Y893701D3*
D32*
X2281201Y493701D3*
D33*
X2181201D3*
X2081201D3*
X1981201D3*
D34*
X831201Y2543701D3*
D35*
Y2743701D3*
D29*
X1681201Y493701D3*
D30*
X1581201D3*
X1481201D3*
X1381201D3*
D36*
X1481201Y1593701D3*
Y1542520D3*
X1731201Y1043701D3*
Y992520D3*
D21*
X1556201Y2093701D3*
X1505020D3*
X1556201Y1993701D3*
X1505020D3*
D36*
X1106201Y969882D3*
Y918701D3*
X1206201Y968701D3*
Y917520D3*
D21*
X1982382Y1593701D3*
X1931201D3*
D36*
X1356201Y1293701D3*
Y1242520D3*
D21*
X1982382Y1493701D3*
X1931201D3*
D37*
X1256201Y1568701D3*
Y1501772D3*
D36*
Y1643701D3*
Y1694882D3*
D38*
X2281201Y2693701D3*
D39*
X1081201D3*
D38*
X2281201Y2343701D3*
D39*
X1081201D3*
D21*
X2293701Y1906201D3*
X2242520D3*
D40*
X831201Y2343701D3*
Y2123228D3*
D21*
X656201Y2343701D3*
X605020D3*
D36*
X831201Y1993701D3*
Y1942520D3*
X606201Y2268701D3*
Y2217520D3*
X831201Y1843701D3*
Y1792520D3*
D32*
X1331201Y993701D3*
D33*
Y816535D3*
X1587106D3*
Y993701D3*
D41*
X2131201Y1493701D3*
D42*
X2231201D3*
Y1793701D3*
X2131201Y1793690D3*
D44*
X2239075Y2011024D3*
X2313878D3*
X2276476Y2101575D3*
D46*
X1281201Y1243701D3*
Y1318504D3*
X1190650Y1281102D3*
X2031201Y2093701D3*
Y2018898D3*
X2121752Y2056299D3*
D44*
X1506201Y1343701D3*
X1431398D3*
X1468799Y1253150D3*
D49*
X1681201Y1643701D3*
D50*
X1599508Y1625000D3*
X1615256D3*
X1631004D3*
X1646752D3*
X1662500D3*
D49*
X1681201Y1659449D3*
X1533563Y1753937D3*
X1681201Y1690945D3*
Y1706693D3*
Y1722441D3*
Y1738189D3*
Y1753937D3*
Y1675197D3*
D50*
X1552244Y1625000D3*
X1662500Y1772638D3*
X1646752D3*
X1631004D3*
X1615256D3*
X1599508D3*
D51*
X1607343Y1698819D3*
D49*
X1533563Y1690945D3*
Y1738189D3*
Y1722441D3*
Y1706693D3*
Y1675197D3*
Y1659449D3*
D50*
X1568012Y1625000D3*
X1583760D3*
Y1772638D3*
D49*
X1533563Y1643701D3*
D50*
X1568012Y1772638D3*
X1552264D3*
M02*
