%TF.GenerationSoftware,Novarm,DipTrace,3.0.0.1*%
%TF.CreationDate,2016-05-11T18:50:05+00:00*%
%FSLAX35Y35*%
%MOMM*%
%TF.FileFunction,Copper,L4,Bot*%
%TF.Part,Single*%
%TA.AperFunction,ViaPad*%
%ADD15C,2.0*%
%TA.AperFunction,Conductor*%
%ADD16C,1.0*%
%ADD17C,0.35*%
%ADD18C,0.4*%
%ADD19C,0.6*%
%ADD20C,0.3*%
%ADD21C,0.33*%
%ADD24C,0.7*%
%TA.AperFunction,ViaPad*%
%ADD26C,0.5*%
%TA.AperFunction,Conductor*%
%ADD27C,0.2*%
%TA.AperFunction,ComponentPad*%
%ADD29R,1.7X1.7*%
%ADD30C,1.7*%
%ADD31R,2.0X2.0*%
%ADD32C,2.0*%
%ADD34R,0.3X1.6*%
%ADD35R,1.6X0.3*%
%ADD36R,0.9X0.7*%
%ADD37R,0.7X0.9*%
%TA.AperFunction,ComponentPad*%
%ADD38R,1.0X1.0*%
%ADD39C,1.0*%
%ADD43R,1.5X1.3*%
%ADD51R,1.7X2.5*%
%ADD53R,2.1X1.55*%
%ADD64R,1.0X1.1*%
%ADD67R,1.6X1.8*%
%ADD70R,1.3X1.5*%
%TA.AperFunction,ComponentPad*%
%ADD71C,3.0*%
%ADD72R,2.3X2.3*%
%ADD73C,2.3*%
%ADD75R,0.65X1.05*%
%ADD77R,1.55X2.1*%
%ADD79R,1.05X0.65*%
%TA.AperFunction,ComponentPad*%
%ADD84R,1.9X1.9*%
%ADD85C,1.9*%
%TA.AperFunction,ViaPad*%
%ADD86C,1.016*%
%ADD181C,0.6*%
G75*
G01*
%LPD*%
X3920500Y6270500D2*
D16*
Y6566470D1*
Y6778500D1*
X2238000Y7699000D2*
X2048000D1*
X1889000Y7858000D1*
X2439000Y7689000D2*
X2248000D1*
X2238000Y7699000D1*
X7857500Y6270500D2*
Y6588000D1*
Y6778500D1*
X11794500Y6270500D2*
Y6588000D1*
Y6778500D1*
X6397500Y7647000D2*
X6227500D1*
X6207000Y7667500D1*
X6016500D1*
X5826000Y7858000D1*
X10334500Y7647000D2*
X10164500D1*
X10144000Y7667500D1*
X9953500D1*
X9763000Y7858000D1*
X12410500Y5362000D2*
D17*
X12461750Y5310750D1*
Y4841750D1*
X12484183Y4819317D1*
X12513000Y4790500D1*
X12576500D1*
X12484183Y4819317D2*
X12443117Y4778250D1*
X11858500D1*
X11699750Y4937000D1*
X11604000D1*
X10715000D2*
X10873750Y4778250D1*
X11302877D1*
X11350500Y4825873D1*
X11572750D1*
X11604000Y4857123D1*
Y4937000D1*
X10715000D2*
D18*
X10715500D1*
X10874250Y5095750D1*
Y5318000D1*
X8473500Y5362000D2*
D17*
X8461250D1*
Y5286250D1*
X8508873Y5238627D1*
Y4857627D1*
X8524750Y4841750D1*
X8556000Y4810500D1*
X8620000D1*
X7667000Y4937000D2*
X7762750D1*
X7953250Y4746500D1*
X8429500D1*
X8524750Y4841750D1*
X6778000Y4937000D2*
X6936750Y4778250D1*
X7365877D1*
X7413500Y4825873D1*
X7635750D1*
X7667000Y4857123D1*
Y4937000D1*
X4556000Y5342000D2*
Y5222750D1*
X4587750Y5191000D1*
Y4873500D1*
X4605113Y4856137D1*
X4631250Y4830000D1*
X4703000D1*
X3730000Y4937000D2*
X3825750D1*
X3984500Y4778250D1*
X4527227D1*
X4605113Y4856137D1*
X2841000Y4937000D2*
X2999750Y4778250D1*
X3317753D1*
X3365377Y4825873D1*
X3698750D1*
X3730000Y4857123D1*
Y4937000D1*
X6778000D2*
X6905500Y5064500D1*
Y5318000D1*
X2841000Y4937000D2*
X2968500Y5064500D1*
Y5318000D1*
X10779000Y8429500D2*
D19*
X11033000D1*
X11034500Y8431000D1*
X11158500D1*
X11287000Y8302500D1*
Y8112000D1*
X11541000Y8429500D2*
X11414000D1*
X11287000Y8302500D1*
Y8112000D2*
X11477500Y7921500D1*
X12239500D1*
X12430000Y8112000D1*
X11922000Y8429500D2*
X12176000D1*
X12303000D1*
X12430000Y8302500D1*
Y8112000D1*
X12684000Y8429500D2*
X12557000D1*
X12430000Y8302500D1*
X6842000Y8429500D2*
X7096000D1*
X7223000D1*
X7350000Y8302500D1*
Y8112000D1*
Y8302500D2*
X7480000Y8432500D1*
X7604000D1*
X7985000Y8429500D2*
X8239000D1*
X8366000D1*
X8493000Y8302500D1*
Y8112000D1*
X8747000Y8429500D2*
X8620000D1*
X8493000Y8302500D1*
X7350000Y8112000D2*
X7540500Y7921500D1*
X8302500D1*
X8493000Y8112000D1*
X4046500Y8431000D2*
X4300500D1*
X4302000Y8429500D1*
X4429000D1*
X4556000Y8302500D1*
Y8112000D1*
X4810000Y8429500D2*
X4683000D1*
X4556000Y8302500D1*
X3667000Y8429500D2*
X3540000D1*
X3413000Y8302500D1*
Y8112000D1*
X2905000Y8432500D2*
X3156000D1*
X3157500Y8431000D1*
X3284500D1*
X3413000Y8302500D1*
Y8112000D2*
X3603500Y7921500D1*
X4365500D1*
X4556000Y8112000D1*
X2080000Y4810000D2*
Y4809500D1*
X2206500Y4683000D1*
X2333500D1*
X2460500Y4810000D1*
Y5191000D1*
X2524000Y5254500D1*
X2648000D1*
X2651000Y5257500D1*
X4432000Y5762500D2*
Y6270500D1*
X4368500Y6334000D1*
X2651000Y5257500D2*
X2717500D1*
X3095500Y5635500D1*
X3444750D1*
X3540000Y5540250D1*
Y5257500D1*
Y5540250D2*
X3667000Y5667250D1*
Y5826500D1*
Y5667250D2*
X4397250D1*
X4429000Y5699000D1*
Y5759500D1*
X4432000Y5762500D1*
X4873500Y4807000D2*
X5064000D1*
Y4810000D1*
X5255000D1*
X5382000Y4683000D1*
X5508500D1*
X5635500Y4810000D1*
X6017000D1*
Y4809500D1*
X6143500Y4683000D1*
X6270500D1*
X6397500Y4810000D1*
Y5191000D1*
X6461000Y5254500D1*
X6585000D1*
X6588000Y5257500D1*
X6654500D1*
X7032500Y5635500D1*
X7381750D1*
X7477000Y5540250D1*
Y5254500D1*
Y5540250D2*
X7604000Y5667250D1*
Y5826500D1*
Y5667250D2*
X8334250D1*
X8366000Y5699000D1*
Y5759500D1*
X8369000Y5762500D1*
Y6270500D1*
X8305500Y6334000D1*
X8810500Y4807000D2*
X9001000Y4810000D1*
X9192000D1*
X9319000Y4683000D1*
X9445500D1*
X9572500Y4810000D1*
X9954000D1*
Y4809500D1*
X10080500Y4683000D1*
X10207500D1*
X10334500Y4810000D1*
Y5191000D1*
X10398000Y5254500D1*
X10522000D1*
X10525000Y5257500D1*
Y5349750D1*
X10779000Y5603750D1*
X11350500D1*
X11414000Y5540250D1*
Y5257500D1*
Y5540250D2*
X11541000Y5667250D1*
Y5826500D1*
Y5667250D2*
X12271250D1*
X12303000Y5699000D1*
Y5762500D1*
X4873500Y5315000D2*
X5064000D1*
Y4968750D1*
Y4810000D1*
X4432000Y5762500D2*
X4968750D1*
X5064000Y5667250D1*
Y5315000D1*
X8810500D2*
X9001000D1*
Y5095750D1*
Y4810000D1*
X8369000Y5762500D2*
X8905750D1*
X9001000Y5667250D1*
Y5315000D1*
X12303000Y5762500D2*
Y6273500D1*
X12242500Y6334000D1*
X8305500D2*
Y7938287D1*
X8493000Y8112000D1*
X12242500Y6334000D2*
X12239500Y7921500D1*
X4368500Y6334000D2*
X4365500Y7921500D1*
X1318000Y4810000D2*
Y4682500D1*
X1444500Y4556000D1*
X1508000D1*
X1762000Y4810000D1*
X2080000D1*
X2651000Y6525000D2*
Y6461000D1*
X3032000Y6080000D1*
X3444750D1*
X3667000Y5857750D1*
Y5826500D1*
X6588000Y6525000D2*
Y6461000D1*
X6969000Y6080000D1*
X7381750D1*
X7604000Y5857750D1*
Y5826500D1*
X10525000Y6525000D2*
Y6461000D1*
X10906000Y6080000D1*
X11318750D1*
X11541000Y5857750D1*
Y5826500D1*
X11795000Y2394000D2*
X12049000D1*
X12303000D1*
X4872000Y1982750D2*
X5002000D1*
X5630860D1*
Y1981250D1*
X5762500D1*
X5886500D1*
X5889500Y1984250D1*
X6651500D1*
X6653000Y1982750D1*
X6777000D1*
X6778500Y1984250D1*
X7439750D1*
X7604000Y1820000D1*
X8254000D2*
Y1620000D1*
X8397750Y1476250D1*
X8556500D1*
X9847000Y2951000D2*
D20*
X10126500D1*
X10159873Y2984373D1*
Y3270123D1*
X10028997Y3401000D1*
X9847000D1*
X10117000Y2381000D2*
Y2497000D1*
X10239250Y2619250D1*
X10302750D1*
X10779000Y2616250D2*
X10680750D1*
X10617000Y2552500D1*
Y2381000D1*
X11117000D2*
Y2592123D1*
X11141127Y2616250D1*
X11387000Y2901000D2*
X11259250D1*
X11223500Y2936750D1*
D19*
X11191750Y2968500D1*
X11387000Y3401000D2*
D20*
X11235500D1*
X11191750Y3444750D1*
X11117000Y3921000D2*
Y3782750D1*
X11001250Y3667000D1*
D19*
Y3603500D1*
X10159873Y2984373D2*
X10270997Y2873250D1*
X10117000Y3921000D2*
D20*
Y3814623D1*
X10048750Y3746373D1*
X10617000Y3921000D2*
Y3257500D1*
X10636123Y3238377D1*
X11795000Y2394000D2*
D19*
X11639250D1*
X5382000Y4683000D2*
Y4080250D1*
X5000500Y3698750D1*
X4841750D1*
X12303000Y2394000D2*
X12681000D1*
X12747500Y2460500D1*
Y3254250D1*
X12652250Y3349500D1*
X12747500Y5410250D2*
Y5318000D1*
X12763373Y5302127D1*
X12747500Y4807000D2*
Y4698873D1*
X12763373Y4683000D1*
X1889000Y2524000D2*
D16*
Y2778000D1*
X2143000Y3032000D1*
X2460500D1*
X2492250Y3000250D1*
X3032000Y5763000D2*
D19*
X3222500D1*
Y5762500D1*
X2079500Y6398000D2*
X2250000D1*
D21*
X2270000Y6418000D1*
D19*
X2471750D1*
X2905000Y5984750D1*
Y5890000D1*
X3032000Y5763000D1*
X6016500Y6398000D2*
X6187000D1*
X6207000Y6418000D1*
X6440500D1*
X6842000Y6016500D1*
Y5890000D1*
X6969000Y5763000D1*
X7159000D1*
X7159500Y5762500D1*
X9953500Y6398000D2*
X10124000D1*
X10144000Y6418000D1*
X10377500D1*
X10779000Y6016500D1*
Y5890000D1*
X10906000Y5763000D1*
X11076500D1*
X11096500Y5783000D1*
X2270000Y6418000D2*
Y6270500D1*
X2587500Y4238500D2*
X3413000Y3413000D1*
X4238500D1*
X10144000Y6270500D2*
Y6418000D1*
X6207000D2*
Y6268327D1*
X12557000Y2016000D2*
X12303000D1*
X12049000D1*
X11795000D1*
X10667000Y3921000D2*
D20*
Y3683750D1*
X10871427Y3479323D1*
D19*
X10906000Y3444750D1*
X10969500D1*
D20*
X11160000Y3635250D1*
X11167000Y3642250D1*
Y3921000D1*
X11387000Y3351000D2*
X11288500D1*
X11191750Y3254250D1*
D19*
X11160000D1*
X10969500Y3444750D1*
X9847000Y2901000D2*
D20*
X10116250D1*
X10271000Y2746250D1*
X10067000Y2542250D1*
Y2381000D1*
X10567000D2*
Y2708877D1*
X10604373Y2746250D1*
X11112377Y2698623D2*
X11264750Y2851000D1*
X11387000D1*
X11067000Y2381000D2*
Y2653250D1*
X11112377Y2698623D1*
X8588250Y2047750D2*
D19*
X9223250D1*
X1889000Y2124000D2*
D16*
Y2016000D1*
X1635000Y1762000D1*
X3984500Y3095500D2*
D19*
X3540000Y2651000D1*
Y2587500D1*
X4238500Y3032000D2*
Y2714500D1*
X4365500Y2587500D1*
X4683000Y2714500D2*
D21*
X4365500Y2397000D1*
X4048000D1*
X9847000Y3451000D2*
D20*
X10055000D1*
X10080500Y3476500D1*
X10128127Y3730500D2*
X10167000Y3769373D1*
Y3921000D1*
X3730500Y6778500D2*
D16*
X3476500D1*
D20*
Y6588000D1*
X8683500Y3508250D2*
X8715250Y3476500D1*
X8874000D1*
X8898500Y3501000D1*
X9847000D1*
X3476500Y6270500D2*
D16*
X3730500D1*
X9847000Y3701000D2*
D20*
X8368250D1*
X8366000Y3698750D1*
X3476500Y6429250D2*
Y6270500D1*
X1889000Y7477000D2*
D16*
Y7509000D1*
X2238000D1*
X2439000Y7519000D2*
X2248000D1*
D21*
X2238000Y7509000D1*
X2439000Y7519000D2*
D20*
X2736000D1*
X3095500Y7159500D1*
X10207500Y3714623D2*
X10217000Y3724123D1*
Y3921000D1*
X10717000D2*
Y4078250D1*
X10683750Y4111500D1*
X7445250D1*
X7254750Y3921000D1*
X6746750D1*
X6556250Y4111500D1*
X3667000Y8112000D2*
D21*
Y8299500D1*
X7064250Y3984500D2*
D20*
X7223000D1*
X7413500Y4175000D1*
X10715500D1*
X10767000Y4123500D1*
Y3921000D1*
X3157500Y8301000D2*
D21*
Y8113500D1*
X3159000Y8112000D1*
X6969000Y3984500D2*
D20*
X7032500Y4048000D1*
X7191250D1*
X7381750Y4238500D1*
X10747250D1*
X10817000Y4168750D1*
Y3921000D1*
X2905000Y8112000D2*
D21*
Y8302500D1*
X6873750Y3984500D2*
D20*
X7000750Y4111500D1*
X7159500D1*
X7350000Y4302000D1*
X10779000D1*
X10867000Y4214000D1*
Y3921000D1*
X10917000D2*
Y4259250D1*
X10810750Y4365500D1*
X7318250D1*
X7127750Y4175000D1*
X6969000D1*
X6778500Y3984500D1*
X4810000Y8112000D2*
D21*
Y8299500D1*
X7096000Y4238500D2*
D20*
X7286500Y4429000D1*
X10842500D1*
X10967000Y4304500D1*
Y3921000D1*
X4302000Y8112000D2*
D21*
Y8299500D1*
X7000750Y4238500D2*
D20*
X7254750Y4492500D1*
X10874250D1*
X11017000Y4349750D1*
Y3921000D1*
X4048000Y8112000D2*
D21*
Y8299500D1*
X4046500Y8301000D1*
X6905500Y4238500D2*
D20*
X7223000Y4556000D1*
X10906000D1*
X11067000Y4395000D1*
Y3921000D1*
X11795000Y2777973D2*
D21*
Y2524000D1*
X11387000Y2601000D2*
D20*
X11559250D1*
X11636250Y2524000D1*
X11795000D1*
X4112000Y5953000D2*
X4175500Y5889500D1*
X10810750Y1476250D2*
X11017000Y1682500D1*
Y2381000D1*
X4302000Y5953000D2*
D21*
Y5762500D1*
X3667000Y6016500D2*
X3794000D1*
X4048000Y5762500D1*
X4175597D1*
X4302000D1*
X1508000Y4810000D2*
X1603250D1*
X10967000Y2381000D2*
D20*
Y1727750D1*
X10906000Y1666750D1*
X3540000Y5127500D2*
D21*
Y4937000D1*
X10917000Y2381000D2*
D20*
Y1773000D1*
X10874250Y1730250D1*
X3635250Y5127500D2*
X3540000D1*
X2651000D2*
D21*
Y4937000D1*
X10867000Y2381000D2*
D20*
Y1818250D1*
X10842500Y1793750D1*
X10525000Y1476250D1*
X4206750Y4175000D2*
X3254250D1*
D21*
X2873250Y4556000D1*
Y4762373D1*
X2809747Y4825877D1*
X2762123D1*
X2651000Y4937000D1*
X4703000Y5020000D2*
X4790500D1*
X4873500Y4937000D1*
D20*
Y5000500D1*
X4937000Y5064000D1*
X10366250Y1412750D2*
X10817000Y1863500D1*
Y2381000D1*
X4873500Y5445000D2*
D21*
X4849000D1*
X4746000Y5342000D1*
X4873500Y5445000D2*
D20*
X4937000D1*
X4968750Y5413250D1*
X10207500Y1349250D2*
X10767000Y1908750D1*
Y2381000D1*
X10717000D2*
Y1954000D1*
X10366250Y1603250D1*
X10667000Y2381000D2*
Y1999250D1*
X10207500Y1539750D1*
X7413500Y6778500D2*
D16*
X7667500D1*
X9847000Y3551000D2*
D20*
X8853250D1*
X8842250Y3540000D1*
X7413500Y6619750D2*
Y6778500D1*
X7667500Y6270500D2*
D16*
X7413500D1*
X9847000Y3751000D2*
D20*
X8726500D1*
X8683500Y3794000D1*
X7413500Y6429250D2*
Y6270500D1*
X5826000Y7477000D2*
D16*
X6207000D1*
Y7477500D1*
X6397500Y7477000D2*
X6207500D1*
X6397500D2*
D20*
X6873750D1*
X7127750Y7223000D1*
X8524750Y4048000D2*
X10239250D1*
X10267000Y4020250D1*
Y3921000D1*
X11217000D2*
X11382250D1*
X11572750Y4111500D1*
X7604000Y8302500D2*
D21*
Y8112000D1*
X11387000Y3751000D2*
D20*
X11498000D1*
X11636250Y3889250D1*
Y4365500D1*
X7096000Y8112000D2*
D21*
Y8299500D1*
X11387000Y3701000D2*
D20*
X11543250D1*
X11699750Y3857500D1*
Y4302000D1*
X6842000Y8299500D2*
D21*
Y8112000D1*
X11387000Y3651000D2*
D20*
X11588500D1*
X11763250Y3825750D1*
Y4238500D1*
X11387000Y3601000D2*
X11633750D1*
X11826750Y3794000D1*
Y4175000D1*
X8747000Y8112000D2*
D21*
Y8299500D1*
X11387000Y3551000D2*
D20*
X11679000D1*
X11890250Y3762250D1*
Y4556000D1*
X8239000Y8112000D2*
D21*
Y8299500D1*
X11387000Y3501000D2*
D20*
X11724250D1*
X11953750Y3730500D1*
Y4492500D1*
X7985000Y8112000D2*
D21*
Y8299500D1*
X11387000Y3451000D2*
D20*
X11769500D1*
X12017250Y3698750D1*
Y4429000D1*
X12049000Y2524000D2*
D21*
Y2778000D1*
X11387000Y2551000D2*
D20*
Y2492250D1*
X10517000Y2381000D2*
Y1944500D1*
X10366250Y1793750D1*
X9509000D1*
X9445500Y1857250D1*
X8143750Y5857750D2*
X8049000Y5952500D1*
Y5953000D1*
X8239000D2*
D21*
Y5762500D1*
X7604000Y6016500D2*
X7794500D1*
X8048500Y5762500D1*
X8112000D1*
X8239000D1*
X5445000Y4810000D2*
Y5000500D1*
X5508500Y5064000D1*
X9382000Y1952500D2*
D20*
X9477250D1*
X9572500Y1857250D1*
X10334500D1*
X10467000Y1989750D1*
Y2381000D1*
X7477000Y5124500D2*
D21*
Y4937000D1*
Y5124500D2*
D20*
X7696250D1*
X7699250Y5127500D1*
X9636000Y1920750D2*
X10302750D1*
X10417000Y2035000D1*
Y2381000D1*
X6588000Y4937000D2*
D21*
Y5127500D1*
Y4937000D2*
D20*
X6699127Y4825873D1*
X6730877D1*
X6778500Y4778250D1*
Y4683000D1*
X6873750Y4587750D1*
X6969000D1*
X7000750Y4619500D1*
X10367000Y2381000D2*
Y2080250D1*
X10271000Y1984250D1*
X9540750D1*
X9477250Y2047750D1*
X9350250D1*
X9096250Y2301750D1*
X8620000Y5000500D2*
D21*
X8747000D1*
X8810500Y4937000D1*
D20*
X8731123Y4857623D1*
Y4730623D1*
X8651750Y4651250D1*
X8207250D1*
X9572500Y2047750D2*
X10239250D1*
X10317000Y2125500D1*
Y2381000D1*
X8810500Y5445000D2*
D21*
X8746500D1*
X8663500Y5362000D1*
X8810500Y5445000D2*
D20*
X8905747D1*
X9509000Y2111250D2*
X10207500D1*
X10267000Y2170750D1*
Y2381000D1*
X5984750Y4683000D2*
Y4556000D1*
X7032500Y3508250D1*
X9318500Y2174750D2*
X10175750D1*
X10217000Y2216000D1*
Y2381000D1*
X5889500Y4683000D2*
Y4556000D1*
X6873750Y3571750D1*
X9255000Y2238250D2*
X10144000D1*
X10167000Y2261250D1*
Y2381000D1*
X11350500Y6778500D2*
D16*
X11604500D1*
X9847000Y3601000D2*
D20*
X9702000D1*
X9667750Y3635250D1*
X11350500Y6619750D2*
Y6778500D1*
X11604500Y6270500D2*
D16*
X11350500D1*
D20*
Y6429250D1*
X9921750Y3921000D2*
X10017000D1*
X9826500Y7477000D2*
D16*
X10144000D1*
Y7477500D1*
X10334500Y7477000D2*
X10144500D1*
X9847000Y3651000D2*
D20*
X10223500D1*
X10239250Y3635250D1*
X11064750Y7223000D2*
X10810750Y7477000D1*
X10334500D1*
X10317000Y3921000D2*
Y3713000D1*
X10239250Y3635250D1*
X11387000Y3301000D2*
X11778250D1*
X12080750Y3603500D1*
Y4587750D1*
X11541000Y8112000D2*
D21*
Y8299500D1*
X11387000Y3251000D2*
D20*
X11823500D1*
X12144250Y3571750D1*
Y4651250D1*
X11541000Y7159500D2*
Y7794500D1*
X11033000Y8112000D2*
D21*
Y8299500D1*
X11034500Y8301000D1*
X11387000Y3201000D2*
D20*
X11868750D1*
X12207750Y3540000D1*
Y4619500D1*
X10779000Y8299500D2*
D21*
Y8112000D1*
X11387000Y3151000D2*
D20*
X11914000D1*
X12271250Y3508250D1*
Y4587750D1*
X11387000Y3101000D2*
X11959250D1*
X12334750Y3476500D1*
Y4556000D1*
X12684000Y8112000D2*
D21*
Y8299500D1*
X11387000Y3051000D2*
D20*
X12036250D1*
X12398250Y3413000D1*
Y4524250D1*
X12176000Y8112000D2*
D21*
Y8299500D1*
X11387000Y3001000D2*
D20*
X12081500D1*
X12461750Y3381250D1*
Y4492500D1*
X11922000Y8112000D2*
D21*
Y8299500D1*
X11387000Y2951000D2*
D20*
X12126750D1*
X12525250Y3349500D1*
Y4460750D1*
X12303000Y2524000D2*
D21*
Y2778000D1*
X11217000Y2381000D2*
D20*
X11398250D1*
X11477500Y2301750D1*
X11167000Y2381000D2*
Y2263000D1*
X11191750Y2238250D1*
X11414000D1*
X11986000Y5953000D2*
Y5920750D1*
X12049000Y5857750D1*
X9858250Y2365250D2*
X9874000Y2381000D1*
X10017000D1*
X12173000Y5762500D2*
D21*
Y5950000D1*
X12176000Y5953000D1*
X9382000Y4810000D2*
Y5000500D1*
X9445500Y5064000D1*
X11985500Y5762500D2*
X12173000D1*
X11985500D2*
X11731500Y6016500D1*
X11541000D1*
X9847000Y2551000D2*
D20*
X9990000D1*
X9985250Y2555750D1*
X11414000Y4937000D2*
D21*
Y5127500D1*
D20*
X11445750D1*
X11572750Y5254500D1*
X9699500Y2555750D2*
X9744750Y2601000D1*
X9847000D1*
X10525000Y4937000D2*
D21*
Y5127500D1*
D20*
X10620250D1*
X10715500Y5222750D1*
Y5381500D1*
X10779000Y5445000D1*
X9699500Y2651000D2*
X9847000D1*
X12576500Y4980500D2*
D21*
X12704000D1*
X12747500Y4937000D1*
D20*
X12779250D1*
X12842750Y4873500D1*
Y4492500D1*
X12684000Y4333750D1*
X10080500Y2682750D2*
X10062250Y2701000D1*
X9847000D1*
X12600500Y5362000D2*
D21*
X12588750D1*
Y5445000D1*
X12684000Y5540250D1*
X12747500D1*
D20*
Y5572000D1*
X12811000Y5635500D1*
X10017000Y2778000D2*
X9990000Y2751000D1*
X9847000D1*
Y2801000D2*
X9613000D1*
X9540750Y2873250D1*
X9604250Y2905000D2*
X9658250Y2851000D1*
X9847000D1*
X10367000Y3921000D2*
Y3667747D1*
X10255127Y3555873D1*
X10567000Y3921000D2*
Y3772500D1*
X10271000Y3476500D1*
X10175750D1*
X8810500Y3000250D2*
X5408750D1*
X5123000Y2714500D1*
X11387000Y2801000D2*
X11500500D1*
X11572750Y2873250D1*
X11387000Y2751000D2*
X11536250D1*
X11572750Y2714500D1*
X9847000Y3201000D2*
X9392250D1*
X8969250Y2778000D1*
X8556500Y1603250D2*
Y1967500D1*
X8254000Y2270000D1*
X9847000Y3251000D2*
X9347000D1*
X8874000Y2778000D1*
X5762500Y2111250D2*
X5603750D1*
X5445000Y2270000D1*
X5762500Y2111250D2*
X5886500D1*
X5889500Y2114250D1*
X5939250D1*
X6095000Y2270000D1*
X9847000Y3001000D2*
X9573250D1*
X9096250Y2524000D1*
X7381750D1*
X6095000Y2270000D2*
Y2445500D1*
X6081500Y2459000D1*
X6653000Y2112750D2*
X6491250D1*
X6334000Y2270000D1*
X6653000Y2112750D2*
X6777000D1*
X6778500Y2114250D1*
X6828250D1*
X6984000Y2270000D1*
X9847000Y3051000D2*
X9528000D1*
X9064500Y2587500D1*
X7301500D1*
X6984000Y2270000D1*
Y2445500D1*
X6970500Y2459000D1*
X5730750Y2460500D2*
X5848747Y2459000D1*
X5951500D1*
X6715000D2*
X6840500D1*
X9847000Y3101000D2*
X9482750D1*
X9032750Y2651000D1*
X6810250D1*
X6715000Y2555750D1*
Y2459000D1*
X4872000Y2112750D2*
X4713250D1*
X4556000Y2270000D1*
X4872000Y2112750D2*
X5002000D1*
X5048750D1*
X5206000Y2270000D1*
X9847000Y3151000D2*
X9437500D1*
X9001000Y2714500D1*
X5650500D1*
X5460683Y2524683D1*
X5206000Y2270000D1*
X5600750Y2460500D2*
X5524867D1*
X5460683Y2524683D1*
X9847000Y3301000D2*
X9301750D1*
X8874000Y2873250D1*
X7508750D1*
X9847000Y3351000D2*
X9256500D1*
X8842250Y2936750D1*
X7572250D1*
X2175000Y5040000D2*
D19*
Y5286000D1*
D24*
X2143000Y5318000D1*
X1888500D2*
X2143000D1*
Y5699000D1*
X1413000Y5040000D2*
D19*
Y5286000D1*
D24*
X1381000Y5318000D1*
X1698500D2*
X1381000D1*
X1762000Y5826000D2*
X1571500D1*
X1381000Y5635500D1*
Y5318000D1*
X3196500Y6270500D2*
D16*
X3038000D1*
X1381000Y7858000D2*
Y7705000D1*
X1609000Y7477000D1*
X3032000Y6778500D2*
X3196500D1*
X6112000Y5040000D2*
D19*
Y5286000D1*
X6080000Y5318000D1*
X5825500D2*
X6080000D1*
Y5699000D2*
Y5318000D1*
X5350000Y5040000D2*
Y5286000D1*
X5318000Y5318000D1*
X5635500D2*
X5318000D1*
Y5635500D1*
X5508500Y5826000D1*
X5699000D1*
X7133500Y6270500D2*
D16*
X6975000D1*
X5318000Y7858000D2*
Y7705000D1*
X5546000Y7477000D1*
X7133500Y6778500D2*
X6969000D1*
X10049000Y5040000D2*
D19*
Y5286000D1*
X10017000Y5318000D1*
X9762500D2*
X10017000D1*
Y5699000D1*
X9287000Y5040000D2*
Y5286000D1*
X9255000Y5318000D1*
X9572500D2*
X9255000D1*
Y5635500D1*
X9445500Y5826000D1*
X9636000D1*
X11070500Y6270500D2*
D16*
X10912000D1*
X9255000Y7858000D2*
Y7768500D1*
X9546500Y7477000D1*
X11070500Y6778500D2*
X10906000D1*
X1762000Y6266000D2*
D24*
Y6405500D1*
X1849500Y6493000D1*
X2583000Y5699000D2*
X2643000D1*
X2802000Y5858000D1*
X3222500Y5932500D2*
D19*
Y5953000D1*
X3032000D1*
X3437000Y5921500D2*
X3233500D1*
D21*
X3222500Y5932500D1*
X2079500Y6588000D2*
D19*
X2270000D1*
X2421000Y6620000D2*
X2302000D1*
D21*
X2270000Y6588000D1*
X4207000Y6183000D2*
Y6302500D1*
X4238500Y6334000D1*
Y6778500D1*
X3984500Y7032500D1*
X2841500D1*
X2651000Y6842000D1*
Y6715000D1*
X2270000Y4810000D2*
Y4937000D1*
X2778000Y6588000D2*
X2651000Y6715000D1*
X3159000Y4683000D2*
D20*
X3611000D1*
X3635000Y4707000D1*
X2524000Y4683000D2*
D21*
X2722000D1*
X2746000Y4707000D1*
X4473000Y4925000D2*
D20*
X4441000D1*
X4365500Y5000500D1*
Y5254500D1*
X4175000Y5445000D1*
X4651000Y5572000D2*
D21*
X4905250D1*
X4968750Y5635500D1*
X5699000Y6266000D2*
D19*
Y6405500D1*
X5786500Y6493000D1*
X6520000Y5699000D2*
X6580000D1*
X6739000Y5858000D1*
X6969000Y5953000D2*
X7159500D1*
Y5932500D1*
X7374000Y5921500D2*
X7159500D1*
Y5932500D1*
X6358000Y6620000D2*
X6239000D1*
X6207000Y6588000D1*
X6016500D2*
X6207000D1*
X8144000Y6183000D2*
D21*
Y6302500D1*
D27*
X8175500Y6334000D1*
D21*
Y6778500D1*
X7921500Y7032500D1*
X6778500D1*
X6588000Y6842000D1*
Y6715000D1*
X6715000Y6588000D1*
X6270500Y5000500D2*
X6207000Y4937000D1*
Y4810000D1*
X7159500Y4683000D2*
D20*
X7548000D1*
X7572000Y4707000D1*
X6461000Y4683000D2*
D21*
X6659000D1*
X6683000Y4707000D1*
X8390000Y4905500D2*
D20*
Y5167000D1*
X8112000Y5445000D1*
X8568500Y5592000D2*
D21*
X8830500D1*
X8874000Y5635500D1*
X9636000Y6266000D2*
D19*
Y6405500D1*
X9723500Y6493000D1*
X10457000Y5699000D2*
X10517000D1*
X10676000Y5858000D1*
X10906000Y5953000D2*
X11096500D1*
X11311000Y5921500D2*
X11096500D1*
D21*
Y5953000D1*
X10295000Y6620000D2*
D19*
X10176000D1*
X10144000Y6588000D1*
X9953500D2*
X10144000D1*
X10525000Y6715000D2*
D21*
Y6842000D1*
X10715500Y7032500D1*
X11858500D1*
X12112500Y6778500D1*
Y6334000D1*
X12081000Y6183000D2*
Y6302500D1*
X12112500Y6334000D1*
X10144000Y4810000D2*
Y4937000D1*
X10207500Y5000500D1*
X10652000Y6588000D2*
X10525000Y6715000D1*
X10969500Y4683000D2*
D20*
X11485000D1*
X11509000Y4707000D1*
X10620000D2*
D21*
Y4667123D1*
X10366250D1*
X12346500Y4885500D2*
D20*
Y5147500D1*
X12049000Y5445000D1*
X12505500Y5592000D2*
D21*
X12640503D1*
X12763377Y5714873D1*
D15*
X3920500Y6566470D3*
X7857500Y6588000D3*
X11794500D3*
X6334000Y3603500D3*
X8112000Y3571750D3*
X11081200Y7486000D3*
D86*
X10874250Y5318000D3*
D15*
X7127750Y7486000D3*
X3233663D3*
D86*
X6905500Y5318000D3*
X2968500D3*
D15*
X2492250Y3000250D3*
D86*
X5064000Y4968750D3*
X1508000Y4556000D3*
X9001000Y5095750D3*
X3794000Y2126033D3*
X4841750Y3698750D3*
D181*
X10302750Y2619250D3*
X10779000Y2616250D3*
X11141127D3*
X11191750Y2968500D3*
Y3444750D3*
X11001250Y3603500D3*
X10270997Y2873250D3*
D3*
X10048750Y3746373D3*
X10636123Y3238377D3*
X10270997Y2873250D3*
X11001250Y3603500D3*
X10636123Y3238377D3*
X11191750Y2968500D3*
X10636123Y3238377D3*
X11191750Y3444750D3*
X10048750Y3746373D3*
X10636123Y3238377D3*
X11141127Y2616250D3*
X11191750Y2968500D3*
X11639250Y2394000D3*
D86*
X4841750Y3698750D3*
D3*
X5630860Y1982750D3*
D181*
X3066750Y2111250D3*
D86*
X3794000Y2126033D3*
D181*
X12763373Y5302127D3*
Y4683000D3*
D15*
X2492250Y3000250D3*
D3*
D181*
X2270000Y6270500D3*
X2587500Y4238500D3*
X4238500Y3413000D3*
X10144000Y6270500D3*
X2270000D3*
X6207000Y6268327D3*
D86*
X5318000Y3063750D3*
D181*
X10604373Y2746250D3*
X11191750Y3254250D3*
X11160000Y3635250D3*
X10871427Y3479323D3*
X10271000Y2746250D3*
D3*
X11112377Y2698623D3*
X10604373Y2746250D3*
X10271000D3*
X10604373D3*
X11191750Y3254250D3*
X11112377Y2698623D3*
D3*
X8588250Y2047750D3*
X9223250D3*
X8588250D3*
D86*
X1635000Y1762000D3*
D181*
X3984500Y3095500D3*
X3540000Y2587500D3*
X4238500Y3032000D3*
X4365500Y2587500D3*
X4238500Y2524000D3*
X4365500Y2841500D3*
X4048000Y2397000D3*
X10080500Y3476500D3*
D26*
X10128127Y3730500D3*
X3476500Y6588000D3*
X8683500Y3508250D3*
X8366000Y3698750D3*
X3476500Y6429250D3*
X3095500Y7159500D3*
X8302500Y3635250D3*
X10207500Y3714623D3*
X6556250Y4111500D3*
X2238250Y8016750D3*
X7064250Y3984500D3*
X6969000D3*
X6873750D3*
X6778500D3*
X2682750Y8016750D3*
X7096000Y4238500D3*
X7000750D3*
X6905500D3*
X4175500Y5889500D3*
X5000500Y4175000D3*
X10810750Y1476250D3*
X1603250Y4810000D3*
X3413000Y5762500D3*
X4175597D3*
X10906000Y1666750D3*
X10874250Y1730250D3*
X3635250Y5127500D3*
X4206750Y4175000D3*
X10842500Y1793750D3*
X4937000Y5064000D3*
X4476627Y4603627D3*
X4905250Y4175000D3*
X10366250Y1412750D3*
X4968750Y5413250D3*
X4349623Y4603627D3*
X4778250Y4175000D3*
X10207500Y1349250D3*
X10366250Y1603250D3*
X2047750Y4651250D3*
X10207500Y1539750D3*
X1952500Y4651250D3*
X8842250Y3540000D3*
X7731000Y4651250D3*
X7413500Y6619750D3*
X8683500Y3794000D3*
X7826250Y4651250D3*
X7413500Y6429250D3*
X7127750Y7223000D3*
X7921500Y4651250D3*
X8524750Y4048000D3*
X11572750Y4111500D3*
X6207000Y8016750D3*
X11636250Y4365500D3*
X11699750Y4302000D3*
X11763250Y4238500D3*
X11826750Y4175000D3*
X6619750Y8048500D3*
X11890250Y4556000D3*
X11953750Y4492500D3*
X12017250Y4429000D3*
X11387000Y2492250D3*
X9445500Y1857250D3*
X8016750Y4651250D3*
X8143750Y5857750D3*
X5508500Y5064000D3*
X8112000Y5762500D3*
X9382000Y1952500D3*
X7699250Y5127500D3*
X9636000Y1920750D3*
X7000750Y4619500D3*
X7699250Y3921000D3*
Y3635250D3*
X9096250Y2301750D3*
X8207250Y4651250D3*
X9572500Y2047750D3*
X8905747Y5445000D3*
X8112593Y4651847D3*
X9509000Y2111250D3*
X5984750Y4683000D3*
X7032500Y3508250D3*
X9318500Y2174750D3*
X5889500Y4683000D3*
X6873750Y3571750D3*
X9255000Y2238250D3*
X9667750Y3635250D3*
X11350500Y6619750D3*
Y6429250D3*
X9921750Y3921000D3*
X10239250Y3635250D3*
X11064750Y7223000D3*
X12080750Y4587750D3*
X10112250Y8112000D3*
X12144250Y4651250D3*
X11541000Y7159500D3*
Y7794500D3*
X12207750Y4619500D3*
X12017250Y6778500D3*
X12271250Y4587750D3*
X12334750Y4556000D3*
X11160000Y7826250D3*
X10525000Y8016750D3*
X12398250Y4524250D3*
X12461750Y4492500D3*
X12620500Y7667500D3*
X12525250Y4460750D3*
X12684000Y7350000D3*
X11477500Y2301750D3*
X11414000Y2238250D3*
X5286440Y2111250D3*
X4508377D3*
X2936750Y2397000D3*
X11414000Y2238250D3*
X2936750Y2397000D3*
X12049000Y5857750D3*
X9858250Y2365250D3*
X9445500Y5064000D3*
X11985500Y5762500D3*
D3*
X9985250Y2555750D3*
X11858500Y4683000D3*
X11572750Y5254500D3*
X9699500Y2555750D3*
X10779000Y5445000D3*
X11636250Y4746500D3*
X9699500Y2651000D3*
X12684000Y4333750D3*
X11223500Y4048000D3*
X10080500Y2682750D3*
X12811000Y5635500D3*
X10017000Y2778000D3*
X9540750Y2873250D3*
X9794750Y3984500D3*
X10874250Y4619500D3*
X9890000Y4968750D3*
Y4651250D3*
X10779000Y4619500D3*
X9604250Y3889250D3*
Y2905000D3*
X10255127Y3555873D3*
X10175750Y3476500D3*
X8810500Y3000250D3*
X11572750Y2873250D3*
Y2714500D3*
X8969250Y2778000D3*
X8874000D3*
X7381750Y2524000D3*
X6715000Y2459000D3*
X5848747D3*
X6715000D3*
X7508750Y2873250D3*
X4905250Y1476250D3*
X7572250Y2936750D3*
X4841750Y1285750D3*
D86*
X3038000Y6270500D3*
X3032000Y6778500D3*
X6975000Y6270500D3*
X6969000Y6778500D3*
X10912000Y6270500D3*
X10906000Y6778500D3*
D181*
X2270000Y4937000D3*
X2778000Y6588000D3*
X3159000Y4683000D3*
X2524000D3*
X4968750Y5635500D3*
X6715000Y6588000D3*
X6270500Y5000500D3*
X7159500Y4683000D3*
X6461000D3*
D26*
X8874000Y5635500D3*
D181*
X10207500Y5000500D3*
X10652000Y6588000D3*
X10969500Y4683000D3*
X10366250Y4667123D3*
X12763377Y5714873D3*
D29*
X12652250Y4111500D3*
D30*
Y3857500D3*
Y3603500D3*
Y3349500D3*
D31*
X11795000Y2016000D3*
D32*
X12049000D3*
X12303000D3*
X12557000D3*
Y2778000D3*
X12303000D3*
X12049000D3*
X11795000Y2777973D3*
D34*
X10017000Y3921000D3*
X10067000D3*
X10117000D3*
X10167000D3*
X10217000D3*
X10267000D3*
X10317000D3*
X10367000D3*
X10417000D3*
X10467000D3*
X10517000D3*
X10567000D3*
X10617000D3*
X10667000D3*
X10717000D3*
X10767000D3*
X10817000D3*
X10867000D3*
X10917000D3*
X10967000D3*
X11017000D3*
X11067000D3*
X11117000D3*
X11167000D3*
X11217000D3*
D35*
X11387000Y3751000D3*
Y3701000D3*
Y3651000D3*
Y3601000D3*
Y3551000D3*
Y3501000D3*
Y3451000D3*
Y3401000D3*
Y3351000D3*
Y3301000D3*
Y3251000D3*
Y3201000D3*
Y3151000D3*
Y3101000D3*
Y3051000D3*
Y3001000D3*
Y2951000D3*
Y2901000D3*
Y2851000D3*
Y2801000D3*
Y2751000D3*
Y2701000D3*
Y2651000D3*
Y2601000D3*
Y2551000D3*
D34*
X11217000Y2381000D3*
X11167000D3*
X11117000D3*
X11067000D3*
X11017000D3*
X10967000D3*
X10917000D3*
X10867000D3*
X10817000D3*
X10767000D3*
X10717000D3*
X10667000D3*
X10617000D3*
X10567000D3*
X10517000D3*
X10467000D3*
X10417000D3*
X10367000D3*
X10317000D3*
X10267000D3*
X10217000D3*
X10167000D3*
X10117000D3*
X10067000D3*
X10017000D3*
D35*
X9847000Y2551000D3*
Y2601000D3*
Y2651000D3*
Y2701000D3*
Y2751000D3*
Y2801000D3*
Y2851000D3*
Y2901000D3*
Y2951000D3*
Y3001000D3*
Y3051000D3*
Y3101000D3*
Y3151000D3*
Y3201000D3*
Y3251000D3*
Y3301000D3*
Y3351000D3*
Y3401000D3*
Y3451000D3*
Y3501000D3*
Y3551000D3*
Y3601000D3*
Y3651000D3*
Y3701000D3*
Y3751000D3*
D29*
X6095000Y1820000D3*
D30*
Y2270000D3*
X5445000D3*
Y1820000D3*
D29*
X6984000D3*
D30*
Y2270000D3*
X6334000D3*
Y1820000D3*
D29*
X5206000D3*
D30*
Y2270000D3*
X4556000D3*
Y1820000D3*
D37*
X4872000Y2112750D3*
Y1982750D3*
X6653000Y2112750D3*
Y1982750D3*
X5762500Y2111250D3*
Y1981250D3*
X5002000Y1982750D3*
Y2112750D3*
X6778500Y1984250D3*
Y2114250D3*
X5889500Y1984250D3*
Y2114250D3*
X11795000Y2524000D3*
Y2394000D3*
X12049000Y2524000D3*
Y2394000D3*
X12303000Y2524000D3*
Y2394000D3*
D36*
X5730750Y2460500D3*
X5600750D3*
X6840500Y2459000D3*
X6970500D3*
X5951500D3*
X6081500D3*
D29*
X2905000Y8112000D3*
D30*
X3159000D3*
X3413000D3*
X3667000D3*
D29*
X4048000D3*
D30*
X4302000D3*
X4556000D3*
X4810000D3*
D37*
X2905000Y8302500D3*
Y8432500D3*
X3157500Y8301000D3*
Y8431000D3*
X3667000Y8299500D3*
Y8429500D3*
X4810000D3*
Y8299500D3*
X4302000Y8429500D3*
Y8299500D3*
X4046500Y8431000D3*
Y8301000D3*
D29*
X6842000Y8112000D3*
D30*
X7096000D3*
X7350000D3*
X7604000D3*
D29*
X7985000D3*
D30*
X8239000D3*
X8493000D3*
X8747000D3*
D37*
X6842000Y8299500D3*
Y8429500D3*
X7096000Y8299500D3*
Y8429500D3*
X7604000Y8302500D3*
Y8432500D3*
X8747000Y8429500D3*
Y8299500D3*
X8239000Y8429500D3*
Y8299500D3*
X7985000Y8429500D3*
Y8299500D3*
D29*
X10779000Y8112000D3*
D30*
X11033000D3*
X11287000D3*
X11541000D3*
D29*
X11922000D3*
D30*
X12176000D3*
X12430000D3*
X12684000D3*
D37*
X10779000Y8299500D3*
Y8429500D3*
X11034500Y8301000D3*
Y8431000D3*
X11541000Y8299500D3*
Y8429500D3*
X12684000D3*
Y8299500D3*
X12176000Y8429500D3*
Y8299500D3*
X11922000Y8429500D3*
Y8299500D3*
D38*
X8810500Y1603250D3*
D39*
X8683500D3*
X8556500D3*
X8810500Y1476250D3*
X8683500D3*
X8556500D3*
D29*
X7604000Y2270000D3*
D30*
Y1820000D3*
X8254000D3*
Y2270000D3*
D51*
X1889000Y2524000D3*
Y2124000D3*
D53*
X4683000Y2714500D3*
X5123000D3*
D29*
X2746250Y1285750D3*
D30*
X3000250D3*
D64*
X2439000Y7519000D3*
Y7689000D3*
D67*
X1889000Y7477000D3*
X1609000D3*
D43*
X2238000Y7699000D3*
Y7509000D3*
D67*
X3476500Y6778500D3*
X3196500D3*
X3476500Y6270500D3*
X3196500D3*
D70*
X3730500Y6778500D3*
X3920500D3*
X3730500Y6270500D3*
X3920500D3*
D71*
X1381000Y7096000D3*
X2143000D3*
X1381000Y6334000D3*
Y5318000D3*
X2143000D3*
D72*
X1381000Y7858000D3*
D73*
X1889000D3*
D64*
X6397500Y7477000D3*
Y7647000D3*
D67*
X5826000Y7477000D3*
X5546000D3*
D43*
X6207000Y7667500D3*
Y7477500D3*
D67*
X7413500Y6778500D3*
X7133500D3*
X7413500Y6270500D3*
X7133500D3*
D70*
X7667500Y6778500D3*
X7857500D3*
X7667500Y6270500D3*
X7857500D3*
D71*
X5318000Y7096000D3*
X6080000D3*
X5318000Y6334000D3*
Y5318000D3*
X6080000D3*
D72*
X5318000Y7858000D3*
D73*
X5826000D3*
D64*
X10334500Y7477000D3*
Y7647000D3*
D67*
X9826500Y7477000D3*
X9546500D3*
D43*
X10144000Y7667500D3*
Y7477500D3*
D67*
X11350500Y6778500D3*
X11070500D3*
X11350500Y6270500D3*
X11070500D3*
D70*
X11604500Y6778500D3*
X11794500D3*
X11604500Y6270500D3*
X11794500D3*
D71*
X9255000Y7096000D3*
X10017000D3*
X9255000Y6334000D3*
Y5318000D3*
X10017000D3*
D72*
X9255000Y7858000D3*
D73*
X9763000D3*
D75*
X1698500Y5318000D3*
X1888500D3*
X1793500Y5088000D3*
D77*
X1762000Y5826000D3*
Y6266000D3*
D53*
X2143000Y5699000D3*
X2583000D3*
D79*
X3032000Y5953000D3*
Y5763000D3*
X2802000Y5858000D3*
X2079500Y6588000D3*
Y6398000D3*
X1849500Y6493000D3*
D75*
X2270000Y4810000D3*
X2080000D3*
X2175000Y5040000D3*
X1508000Y4810000D3*
X1318000D3*
X1413000Y5040000D3*
X4302000Y5953000D3*
X4112000D3*
X4207000Y6183000D3*
D79*
X2651000Y6715000D3*
Y6525000D3*
X2421000Y6620000D3*
D64*
X2270000Y6588000D3*
Y6418000D3*
D36*
X4302000Y5762500D3*
X4432000D3*
X4238500Y6334000D3*
X4368500D3*
D64*
X3222500Y5762500D3*
Y5932500D3*
D79*
X3667000Y6016500D3*
Y5826500D3*
X3437000Y5921500D3*
D75*
X3540000Y4937000D3*
X3730000D3*
X3635000Y4707000D3*
D37*
X3540000Y5127500D3*
Y5257500D3*
X2651000Y5127500D3*
Y5257500D3*
D84*
X3159000Y4937000D3*
D85*
Y5191000D3*
Y5445000D3*
D75*
X2651000Y4937000D3*
X2841000D3*
X2746000Y4707000D3*
D79*
X4703000Y5020000D3*
Y4830000D3*
X4473000Y4925000D3*
D37*
X4873500Y4937000D3*
Y4807000D3*
Y5445000D3*
Y5315000D3*
D84*
X4175000Y5445000D3*
D85*
Y5191000D3*
Y4937000D3*
D75*
X4746000Y5342000D3*
X4556000D3*
X4651000Y5572000D3*
X5635500Y5318000D3*
X5825500D3*
X5730500Y5088000D3*
D77*
X5699000Y5826000D3*
Y6266000D3*
D53*
X6080000Y5699000D3*
X6520000D3*
D79*
X6969000Y5953000D3*
Y5763000D3*
X6739000Y5858000D3*
X6016500Y6588000D3*
Y6398000D3*
X5786500Y6493000D3*
D75*
X6207000Y4810000D3*
X6017000D3*
X6112000Y5040000D3*
X5445000Y4810000D3*
X5255000D3*
X5350000Y5040000D3*
X8239000Y5953000D3*
X8049000D3*
X8144000Y6183000D3*
D79*
X6588000Y6715000D3*
Y6525000D3*
X6358000Y6620000D3*
D64*
X6207000Y6588000D3*
Y6418000D3*
D36*
X8239000Y5762500D3*
X8369000D3*
X8175500Y6334000D3*
X8305500D3*
D64*
X7159500Y5762500D3*
Y5932500D3*
D79*
X7604000Y6016500D3*
Y5826500D3*
X7374000Y5921500D3*
D75*
X7477000Y4937000D3*
X7667000D3*
X7572000Y4707000D3*
D37*
X7477000Y5124500D3*
Y5254500D3*
X6588000Y5127500D3*
Y5257500D3*
D84*
X7096000Y4937000D3*
D85*
Y5191000D3*
Y5445000D3*
D75*
X6588000Y4937000D3*
X6778000D3*
X6683000Y4707000D3*
D79*
X8620000Y5000500D3*
Y4810500D3*
X8390000Y4905500D3*
D37*
X8810500Y4937000D3*
Y4807000D3*
Y5445000D3*
Y5315000D3*
D84*
X8112000Y5445000D3*
D85*
Y5191000D3*
Y4937000D3*
D75*
X8663500Y5362000D3*
X8473500D3*
X8568500Y5592000D3*
X9572500Y5318000D3*
X9762500D3*
X9667500Y5088000D3*
D77*
X9636000Y5826000D3*
Y6266000D3*
D53*
X10017000Y5699000D3*
X10457000D3*
D79*
X10906000Y5953000D3*
Y5763000D3*
X10676000Y5858000D3*
X9953500Y6588000D3*
Y6398000D3*
X9723500Y6493000D3*
D75*
X10144000Y4810000D3*
X9954000D3*
X10049000Y5040000D3*
X9382000Y4810000D3*
X9192000D3*
X9287000Y5040000D3*
X12176000Y5953000D3*
X11986000D3*
X12081000Y6183000D3*
D79*
X10525000Y6715000D3*
Y6525000D3*
X10295000Y6620000D3*
D64*
X10144000Y6588000D3*
Y6418000D3*
D36*
X12173000Y5762500D3*
X12303000D3*
X12112500Y6334000D3*
X12242500D3*
D64*
X11096500Y5783000D3*
Y5953000D3*
D79*
X11541000Y6016500D3*
Y5826500D3*
X11311000Y5921500D3*
D75*
X11414000Y4937000D3*
X11604000D3*
X11509000Y4707000D3*
D37*
X11414000Y5127500D3*
Y5257500D3*
X10525000Y5127500D3*
Y5257500D3*
D84*
X11033000Y4937000D3*
D85*
Y5191000D3*
Y5445000D3*
D75*
X10525000Y4937000D3*
X10715000D3*
X10620000Y4707000D3*
D79*
X12576500Y4980500D3*
Y4790500D3*
X12346500Y4885500D3*
D37*
X12747500Y4937000D3*
Y4807000D3*
Y5540250D3*
Y5410250D3*
D84*
X12049000Y5445000D3*
D85*
Y5191000D3*
Y4937000D3*
D75*
X12600500Y5362000D3*
X12410500D3*
X12505500Y5592000D3*
M02*
