%TF.GenerationSoftware,Novarm,DipTrace,3.0.0.1*%
%TF.CreationDate,2016-05-11T18:50:02+00:00*%
%FSLAX35Y35*%
%MOMM*%
%TF.FileFunction,Soldermask,Top*%
%TF.Part,Single*%
%AMOUTLINE1*
4,1,8,
-2.75,1.085,
-2.75,-1.085,
2.75,-1.085,
2.75,-0.185,
1.55,-0.185,
1.55,0.185,
2.75,0.185,
2.75,1.085,
-2.75,1.085,
0*%
%ADD84R,1.9X1.9*%
%ADD85C,1.9*%
%ADD93C,2.1*%
%ADD94R,2.1X2.1*%
%ADD95R,0.8X0.8*%
%ADD97R,1.6X2.3*%
%ADD105C,2.5*%
%ADD106R,2.5X2.5*%
%ADD107C,3.2*%
%ADD111R,3.4X2.0*%
%ADD113R,3.6X2.1*%
%ADD117R,1.45X2.2*%
%ADD119R,3.2X2.2*%
%ADD121R,1.2X1.3*%
%ADD123R,3.45X2.35*%
%ADD125R,1.15X2.35*%
%ADD127R,0.8X2.2*%
%ADD129R,10.8X9.2*%
%ADD131R,1.2X3.2*%
%ADD133R,1.35X0.9*%
%ADD135R,1.3X1.2*%
%ADD137R,3.1X5.6*%
%ADD143R,1.8X3.35*%
%ADD145R,4.6X2.0*%
%ADD147R,2.2X1.45*%
%ADD149R,2.2X3.2*%
%ADD151R,1.7X1.5*%
%ADD153R,2.0X1.8*%
%ADD155R,2.7X6.5*%
%ADD157C,1.2*%
%ADD159R,1.2X1.2*%
%ADD160R,0.9X1.1*%
%ADD162R,1.1X0.9*%
%ADD168C,2.2*%
%ADD170R,2.2X2.2*%
%ADD178OUTLINE1*%
G75*
G01*
%LPD*%
D84*
X12652250Y4111500D3*
D85*
Y3857500D3*
Y3603500D3*
Y3349500D3*
D170*
X11795000Y2016000D3*
D168*
X12049000D3*
X12303000D3*
X12557000D3*
Y2778000D3*
X12303000D3*
X12049000D3*
X11795000Y2777973D3*
D162*
X10493250Y3794000D3*
X10363250D3*
X10366250Y3667000D3*
X10496250D3*
D84*
X6095000Y1820000D3*
D85*
Y2270000D3*
X5445000D3*
Y1820000D3*
D84*
X6984000D3*
D85*
Y2270000D3*
X6334000D3*
Y1820000D3*
D84*
X5206000D3*
D85*
Y2270000D3*
X4556000D3*
Y1820000D3*
D162*
X2936750Y2301750D3*
X3066750D3*
D84*
X2905000Y8112000D3*
D85*
X3159000D3*
X3413000D3*
X3667000D3*
D84*
X4048000D3*
D85*
X4302000D3*
X4556000D3*
X4810000D3*
D84*
X6842000D3*
D85*
X7096000D3*
X7350000D3*
X7604000D3*
D84*
X7985000D3*
D85*
X8239000D3*
X8493000D3*
X8747000D3*
D84*
X10779000D3*
D85*
X11033000D3*
X11287000D3*
X11541000D3*
D84*
X11922000D3*
D85*
X12176000D3*
X12430000D3*
X12684000D3*
D160*
X10398000Y2746250D3*
Y2616250D3*
X10175750Y2746250D3*
Y2876250D3*
X10683750Y2746250D3*
Y2616250D3*
D162*
X11161500Y3700250D3*
X11031500D3*
X10747250Y3667000D3*
X10617250D3*
D160*
X11129750Y3316250D3*
Y3446250D3*
X11255250Y2746250D3*
Y2616250D3*
X11096500Y2873250D3*
Y3003250D3*
D159*
X8810500Y1603250D3*
D157*
X8683500D3*
X8556500D3*
X8810500Y1476250D3*
X8683500D3*
X8556500D3*
D84*
X7604000Y2270000D3*
D85*
Y1820000D3*
X8254000D3*
Y2270000D3*
D160*
X7350000Y1952500D3*
Y2082500D3*
D155*
X6334000Y4175000D3*
Y2875000D3*
X8112000Y4175000D3*
Y2875000D3*
D153*
X9255000Y4048000D3*
Y4328000D3*
D151*
Y3667000D3*
Y3857000D3*
D149*
X4365500Y1381000D3*
D147*
X4685473Y1468500D3*
Y1293500D3*
D162*
X10175750Y3889250D3*
X10045750D3*
D145*
X4048000Y1730250D3*
X3308000D3*
D143*
X1508000Y3540000D3*
Y3050000D3*
D160*
X5318000Y3667000D3*
Y3797000D3*
D143*
X4048000Y3476500D3*
Y3966500D3*
D137*
X2270000Y1762000D3*
X1300000D3*
D160*
X4440250Y2979750D3*
Y2849750D3*
Y2725750D3*
Y2595750D3*
D135*
X4048000Y2651000D3*
X4218000D3*
X4048000Y2905000D3*
X4218000D3*
D133*
X4567250Y2979750D3*
Y2852750D3*
Y2725750D3*
D178*
X4949750Y2662250D3*
Y2916250D3*
D133*
X4567250Y2598750D3*
D131*
X2270000Y2651000D3*
X2440000D3*
X2610000D3*
X2780000D3*
X2950000D3*
D129*
X2610000Y3641000D3*
D127*
X3413000Y2397000D3*
X3540000D3*
X3667000D3*
X3794000D3*
Y3137000D3*
X3667000D3*
X3540000D3*
X3413000D3*
D125*
X4619500Y3413000D3*
X4849500D3*
X5079500D3*
D123*
X4849500Y3993000D3*
D84*
X2746250Y1285750D3*
D85*
X3000250D3*
D155*
X3936000Y6065000D3*
Y7365000D3*
D119*
X2460500Y7858000D3*
D117*
X2373000Y8177973D3*
X2548000D3*
D149*
X1444500Y4810000D3*
D147*
X1764473Y4897500D3*
Y4722500D3*
D113*
X2778000Y7096000D3*
Y7486000D3*
D111*
Y6207000D3*
Y6767000D3*
D107*
X1381000Y7096000D3*
X2143000D3*
X1381000Y6334000D3*
Y5318000D3*
X2143000D3*
D106*
X1381000Y7858000D3*
D105*
X1889000D3*
D155*
X7858000Y6080000D3*
Y7380000D3*
D119*
X6397500Y7858000D3*
D117*
X6310000Y8177973D3*
X6485000D3*
D149*
X5413250Y4810000D3*
D147*
X5733223Y4897500D3*
Y4722500D3*
D113*
X6715000Y7096000D3*
Y7486000D3*
D111*
Y6207000D3*
Y6767000D3*
D107*
X5318000Y7096000D3*
X6080000D3*
X5318000Y6334000D3*
Y5318000D3*
X6080000D3*
D106*
X5318000Y7858000D3*
D105*
X5826000D3*
D155*
X11795000Y6080000D3*
Y7380000D3*
D119*
X10334500Y7858000D3*
D117*
X10247000Y8177973D3*
X10422000D3*
D149*
X9350250Y4810000D3*
D147*
X9670223Y4897500D3*
Y4722500D3*
D113*
X10652000Y7096000D3*
Y7486000D3*
D111*
Y6207000D3*
Y6767000D3*
D107*
X9255000Y7096000D3*
X10017000D3*
X9255000Y6334000D3*
Y5318000D3*
X10017000D3*
D106*
X9255000Y7858000D3*
D105*
X9763000D3*
D97*
X3413000Y5508500D3*
X3853000D3*
D153*
X2778000Y5572000D3*
Y5292000D3*
D121*
X2524000Y4980000D3*
Y4810000D3*
D95*
Y5572000D3*
Y5352000D3*
D94*
X3159000Y4937000D3*
D93*
Y5191000D3*
Y5445000D3*
D97*
X3921000Y4873500D3*
X3481000D3*
D153*
X4556000Y4810000D3*
Y5090000D3*
D121*
X4810000Y5445000D3*
Y5615000D3*
D95*
X4793000Y4827000D3*
Y5047000D3*
D94*
X4175000Y5445000D3*
D93*
Y5191000D3*
Y4937000D3*
D97*
X7350000Y5508500D3*
X7790000D3*
D153*
X6715000Y5572000D3*
Y5292000D3*
D121*
X6461000Y4980000D3*
Y4810000D3*
D95*
Y5572000D3*
Y5352000D3*
D94*
X7096000Y4937000D3*
D93*
Y5191000D3*
Y5445000D3*
D97*
X7858000Y4873500D3*
X7418000D3*
D153*
X8493000Y4810000D3*
Y5090000D3*
D121*
X8747000Y5445000D3*
Y5615000D3*
D95*
Y4810000D3*
Y5030000D3*
D94*
X8112000Y5445000D3*
D93*
Y5191000D3*
Y4937000D3*
D97*
X11287000Y5508500D3*
X11727000D3*
D153*
X10652000Y5572000D3*
Y5292000D3*
D121*
X10398000Y4980000D3*
Y4810000D3*
D95*
Y5572000D3*
Y5352000D3*
D94*
X11033000Y4937000D3*
D93*
Y5191000D3*
Y5445000D3*
D97*
X11795000Y4873500D3*
X11355000D3*
D153*
X12430000Y4810000D3*
Y5090000D3*
D121*
X12684000Y5445000D3*
Y5615000D3*
D95*
Y4810000D3*
Y5030000D3*
D94*
X12049000Y5445000D3*
D93*
Y5191000D3*
Y4937000D3*
M02*
